ST558
…
API year is : 2022[1] "https://api.census.gov/data/2022/acs/acs1/pums?get=AGEP,PWGTP,GASP,JWDP,JWAP,JWMNP,SEX,HISPEED,FER,SCH&for=state:10"

Warning: The `x` argument of `as_tibble.matrix()` must have unique column names if
`.name_repair` is omitted as of tibble 2.0.0.
ℹ Using compatibility `.name_repair`.

#Printing results
print(result)

# A tibble: 9,641 × 13
    AGEP PWGTP  GASP JWMNP SEX    HISPEED    FER   SCH   state work_arrival_time
   <dbl> <dbl> <dbl> <dbl> <fct>  <fct>      <fct> <fct> <chr> <time>           
 1    84    76     3     0 Female N/A (GQ/v… N/A … No, … 10       NA            
 2    39    20     3     0 Female N/A (GQ/v… No    No, … 10       NA            
 3    19    92     3     0 Female N/A (GQ/v… No    Yes,… 10       NA            
 4    77    19     3     0 Female N/A (GQ/v… N/A … No, … 10       NA            
 5    18    32     3     0 Female N/A (GQ/v… No    Yes,… 10       NA            
 6    32    80     3     0 Male   N/A (GQ/v… N/A … No, … 10       NA            
 7    50   132     3     0 Male   N/A (GQ/v… N/A … No, … 10       NA            
 8    23    19     3    20 Male   N/A (GQ/v… N/A … Yes,… 10    06:22            
 9    20    47     3     0 Female N/A (GQ/v… No    Yes,… 10       NA            
10    18   201     3     0 Female N/A (GQ/v… No    Yes,… 10       NA            
# ℹ 9,631 more rows
# ℹ 3 more variables: arrival_meridiem <chr>, work_departure_time <time>,
#   departure_meridiem <chr>
…
year: 2016API year is : 2016[1] "https://api.census.gov/data/2016/acs/acs1/pums?get=AGEP,PWGTP,JWAP,GRPIP,SEX,HISPEED,SCH,FER&for=state:10"

year: 2017API year is : 2017[1] "https://api.census.gov/data/2017/acs/acs1/pums?get=AGEP,PWGTP,JWAP,GRPIP,SEX,HISPEED,SCH,FER&for=state:10"

year: 2018API year is : 2018[1] "https://api.census.gov/data/2018/acs/acs1/pums?get=AGEP,PWGTP,JWAP,GRPIP,SEX,HISPEED,SCH,FER&for=state:10"

# View the result
print(multi_year_result)

# A tibble: 26,939 × 11
    AGEP PWGTP GRPIP SEX    HISPEED          SCH   FER   state work_arrival_time
   <dbl> <dbl> <dbl> <fct>  <fct>            <fct> <fct> <chr> <time>           
 1    51    90     0 Female Yes              No, … N/A … 10    06:12            
 2    32   153     0 Male   Yes              No, … N/A … 10    06:02            
 3    68    17     0 Male   N/A (GQ/vacant/… No, … N/A … 10       NA            
 4    63    19     0 Female N/A (GQ/vacant/… No, … N/A … 10       NA            
 5    82    34     0 Female No               No, … N/A … 10       NA            
 6    52    65     0 Female No               No, … N/A … 10       NA            
 7    33    80     0 Female No               No, … No    10       NA            
 8    26    66     0 Female No               No, … No    10       NA            
 9     3    65     0 Female No               Yes,… N/A … 10       NA            
10    39    61     0 Female Yes              No, … No    10    11:02            
# ℹ 26,929 more rows
# ℹ 2 more variables: arrival_meridiem <chr>, year <dbl>
…
# Query
rent_query <- query_multiple_years(
  years = c(2022),    
  numeric_vars = c("AGEP", "GRPIP", "PWGTP" ),  
  categorical_vars = c("SEX", "HHL"),  
  geography_level = "state",  
  geography_subset = "10"     
) 

year: 2022API year is : 2022[1] "https://api.census.gov/data/2022/acs/acs1/pums?get=AGEP,GRPIP,PWGTP,SEX,HHL&for=state:10"

print(rent_query)

# A tibble: 9,641 × 7
    AGEP GRPIP PWGTP SEX    HHL     state  year
   <dbl> <dbl> <dbl> <fct>  <fct>   <chr> <dbl>
 1    60     0    82 Female Spanish 10     2022
 2    61     0   101 Male   Spanish 10     2022
 3    31     0   149 Female Spanish 10     2022
 4    28     0   106 Female Spanish 10     2022
 5    69     0   132 Female Spanish 10     2022
 6    30     0    76 Female Spanish 10     2022
 7    32     0   198 Male   Spanish 10     2022
 8    12     0   169 Male   Spanish 10     2022
 9     3     0   564 Female Spanish 10     2022
10     0     0   564 Female Spanish 10     2022
# ℹ 9,631 more rows
…
